{
  "project_info": {
    "project_number": "353406612853",
    "firebase_url": "https://e-banking-app.firebaseio.com",
    "project_id": "e-banking-app",
    "storage_bucket": "e-banking-app.appspot.com"
  },
  "client": [
    {
      "client_info": {
        "mobilesdk_app_id": "1:353406612853:android:2892ed9c71f57ded8c8f3c",
        "android_client_info": {
          "package_name": "com.blindtech.sellme"
        }
      },
      "oauth_client": [
        {
          "client_id": "353406612853-7v1alcdsif5avud6etsg2b8esup6v4v9.apps.googleusercontent.com",
          "client_type": 1,
          "android_info": {
            "package_name": "com.blindtech.sellme",
            "certificate_hash": "17c4fe39c54d4f4f9458bcdf384a45480addab49"
          }
        },
        {
          "client_id": "353406612853-qrn00qju0ucbfbdvqkoalokbl32lthnh.apps.googleusercontent.com",
          "client_type": 3
        }
      ],
      "api_key": [
        {
          "current_key": "AIzaSyAquYmwL47RwnVlyutsdnq4zsWiVGqawiI"
        }
      ],
      "services": {
        "appinvite_service": {
          "other_platform_oauth_client": [
            {
              "client_id": "353406612853-qrn00qju0ucbfbdvqkoalokbl32lthnh.apps.googleusercontent.com",
              "client_type": 3
            }
          ]
        }
      }
    }
  ],
  "configuration_version": "1"
}